{
	"fixedDelay": "500",
	"etfFund": {
		"exchangeCode": "etfFund_HtTsi",
		"symbol": "510050_CNY",
		"makerTaker": "maker",
		"priceTickSize": "0.001",
		"levelCount": 0
	},
	"etfStock": {
		"exchangeCode": "etfStocks_HtTsi",
		"symbol": "50ETFStocks_CNY",
		"priceTickSize": "0.001"
	},
	"arbitrageDirection": "discount",
	"openPositionPriceRatio": "1.0015",
	"maxRoundTimes": 1,
	"fundSplit": 3,
	"marketFilterTimeDiffMinute": 1,
	"aheadOfTimeMin": 0
}